bcrypt==2.0.0
buildbot==0.8.12
buildbot-slave==0.8.12
cffi==1.6.0
decorator==4.0.6
falcon==1.0.0
falcon-cors==1.0.1
future==0.15.2
Jinja2==2.8
MarkupSafe==0.23
mock==1.3.0
nose==1.3.7
numpy==1.11.0
pbr==1.8.1
pycparser==2.14
python-dateutil==2.4.2
python-mimeparse==1.5.2
requests==2.10.0
six==1.10.0
SQLAlchemy==0.7.10
sqlalchemy-migrate==0.7.2
Tempita==0.5.2
Twisted==15.5.0
zope.interface==4.1.3
